{
  "Update": {
    "Note_1":true,
    "hasUpdate":true,
    "Note_2":2.2.2beta.20240823_0308,
    "versionCode": 1,
    "Note_3":2.2.2beta.20240823_0308,
    "apkSize": 版本：1.2.2beta.20240823_0250   apk大小：35MB
    "Note_4":"升级内容; \n测试升级功能",
    "updateLog": 测试是升级文件,
    "Note_5":https://gitlab.com/acocst/tv/-/raw/main/itv.apk,
    "apkUrl":"https://gitlab.com/acocst/tv/-/raw/main/itv.apk"
  }
}